{
    "KPlugin": {
        "Authors": [
            {
                "Email": "stephane@mankowski.fr",
                "Name": "Stephane MANKOWSKI,miraks",
                "Name[ca@valencia]": "Stephane MANKOWSKI,miraks",
                "Name[ca]": "Stephane MANKOWSKI,miraks",
                "Name[en_GB]": "Stephane MANKOWSKI,miraks",
                "Name[eo]": "Stephane MANKOWSKI,miraks",
                "Name[es]": "Stephane MANKOWSKI,miraks",
                "Name[fi]": "Stephane MANKOWSKI,miraks",
                "Name[fr]": "Stephane MANKOWSKI, miraks",
                "Name[gl]": "Stephane MANKOWSKI, miraks",
                "Name[ia]": "Stephane MANKOWSKI,miraks",
                "Name[it]": "Stephane MANKOWSKI,miraks",
                "Name[ka]": "Stephane MANKOWSKI,miraks",
                "Name[nl]": "Stephane MANKOWSKI,miraks",
                "Name[pl]": "Stephane MANKOWSKI,miraks",
                "Name[pt]": "Stephane MANKOWSKI,miraks",
                "Name[ru]": "Stephane MANKOWSKI,miraks",
                "Name[sl]": "Stephane MANKOWSKI,miraks",
                "Name[sv]": "Stephane MANKOWSKI,miraks",
                "Name[tr]": "Stephane MANKOWSKI,miraks",
                "Name[uk]": "Stephane MANKOWSKI,miraks",
                "Name[x-test]": "xxStephane MANKOWSKI,miraksxx"
            }
        ],
        "Category": "Plugins",
        "Description": "A skrooge plugin to manage transactions",
        "Description[ca@valencia]": "Un connector de Skrooge per a gestionar operacions",
        "Description[ca]": "Un connector de l'Skrooge per a gestionar operacions",
        "Description[en_GB]": "A skrooge plugin to manage transactions",
        "Description[eo]": "Skrooge-kromaĵo por administri transakciojn",
        "Description[es]": "Complemento de Skrooge para la gestión de transacciones",
        "Description[fr]": "Un module externe pour la gestion des opérations",
        "Description[gl]": "Un complemento de Skrooge para xestionar transaccións.",
        "Description[it]": "Un'estensione di Skrooge per gestire le transazioni",
        "Description[ka]": "Skrooge-ის დამატება სამართავად",
        "Description[nl]": "Een skrooge-plugin voor het beheren van transacties",
        "Description[sl]": "Vtičnik Skrooge za upravljanje transakcij",
        "Description[sv]": "Ett insticksprogram till skrooge för att hantera transaktioner",
        "Description[tr]": "İşlemleri yönetmek için bir Varyemez eklentisi",
        "Description[uk]": "Додаток до skrooge для керування операціями",
        "Description[x-test]": "xxA skrooge plugin to manage transactionsxx",
        "EnabledByDefault": true,
        "Icon": "skrooge",
        "Id": "skrooge_operation",
        "License": "GPL",
        "Name": "Skrooge operation plugin",
        "Name[bs]": "Skrooge dodatak za operacije",
        "Name[ca@valencia]": "Connector d'operacions de Skrooge",
        "Name[ca]": "Connector d'operacions de l'Skrooge",
        "Name[cs]": "Modul operací pro Skrooge",
        "Name[da]": "Operation-plugin til Skrooge",
        "Name[de]": "Skrooge-Vorgangsmodul",
        "Name[el]": "Skrooge operation plugin",
        "Name[en_GB]": "Skrooge operation plugin",
        "Name[eo]": "Skrooge operacia kromaĵo",
        "Name[es]": "Complemento de operación de Skrooge",
        "Name[et]": "Skrooge tehinguplugin",
        "Name[fi]": "Skroogen tapahtumaliitännäinen",
        "Name[fr]": "Moteur externe de gestion des opérations",
        "Name[gl]": "Complemento de operacións de Skrooge",
        "Name[hu]": "Skrooge művelet bővítmény",
        "Name[it]": "Estensione per le operazioni di Skrooge",
        "Name[ka]": "Skrooge ოპერაციების დამატება",
        "Name[lt]": "Skrooge operacijų papildinys",
        "Name[nb]": "Skrooge operasjonsmodul",
        "Name[nds]": "Akschoonmoduul för Skrooge",
        "Name[nl]": "Plugin voor Skrooge-bewerking",
        "Name[pl]": "Wtyczka operacji dla Skrooge",
        "Name[pt]": "'Plugin' de operações do Skrooge",
        "Name[pt_BR]": "Plugin de operação do Skrooge",
        "Name[ru]": "Модуль операций",
        "Name[sk]": "Plugin operácií Skrooge",
        "Name[sl]": "Vtičnik Skrooge operacij",
        "Name[sv]": "Skrooge operationsinsticksprogram",
        "Name[tr]": "Varyemez İşlem Eklentisi",
        "Name[uk]": "Додаток операцій Skrooge",
        "Name[x-test]": "xxSkrooge operation pluginxx",
        "Name[zh_TW]": "Skrooge 操作外掛程式",
        "ServiceTypes": [
            "SKG GUI/Plugin"
        ],
        "Version": "1.0",
        "Website": "https://skrooge.org/"
    },
    "X-Krunner-ID": "Skrooge operation plugin"
}
