{
    "KPlugin": {
        "Authors": [
            {
                "Email": "stephane@mankowski.fr",
                "Name": "Stephane MANKOWSKI,miraks",
                "Name[ca@valencia]": "Stephane MANKOWSKI,miraks",
                "Name[ca]": "Stephane MANKOWSKI,miraks",
                "Name[en_GB]": "Stephane MANKOWSKI,miraks",
                "Name[eo]": "Stephane MANKOWSKI,miraks",
                "Name[es]": "Stephane MANKOWSKI,miraks",
                "Name[fi]": "Stephane MANKOWSKI,miraks",
                "Name[fr]": "Stephane MANKOWSKI, miraks",
                "Name[gl]": "Stephane MANKOWSKI, miraks",
                "Name[ia]": "Stephane MANKOWSKI,miraks",
                "Name[it]": "Stephane MANKOWSKI,miraks",
                "Name[ka]": "Stephane MANKOWSKI,miraks",
                "Name[nl]": "Stephane MANKOWSKI,miraks",
                "Name[pl]": "Stephane MANKOWSKI,miraks",
                "Name[pt]": "Stephane MANKOWSKI,miraks",
                "Name[ru]": "Stephane MANKOWSKI,miraks",
                "Name[sl]": "Stephane MANKOWSKI,miraks",
                "Name[sv]": "Stephane MANKOWSKI,miraks",
                "Name[tr]": "Stephane MANKOWSKI,miraks",
                "Name[uk]": "Stephane MANKOWSKI,miraks",
                "Name[x-test]": "xxStephane MANKOWSKI,miraksxx"
            }
        ],
        "Category": "Plugins",
        "Description": "A plugin to select all",
        "Description[ca@valencia]": "Un connector per a seleccionar-ho tot",
        "Description[ca]": "Un connector per a seleccionar-ho tot",
        "Description[en_GB]": "A plugin to select all",
        "Description[eo]": "Kromaĵo por elekti ĉiujn",
        "Description[es]": "Complemento para seleccionar todo",
        "Description[fi]": "Valitse kaikki -liitännäinen",
        "Description[fr]": "Un module externe pour une sélection globale",
        "Description[gl]": "Un complemento para escollelo todo.",
        "Description[ia]": "Un plugin per seliger toto",
        "Description[it]": "Un'estensione per la selezione di tutte le estensioni",
        "Description[ka]": "ყველაფრის მონიშვნის დამატება",
        "Description[nl]": "Een plugin om alles te selecteren",
        "Description[pl]": "Wtyczka do zaznaczania wszystkiego",
        "Description[pt]": "Um 'plugin' para seleccionar tudo",
        "Description[ru]": "Модуль «Выбрать всё»",
        "Description[sl]": "Vtičnik za izbiro vsega",
        "Description[sv]": "Ett insticksprogram för att markera allt",
        "Description[tr]": "Tümünü seçmek için bir eklenti",
        "Description[uk]": "Додаток для позначення всіх елементів",
        "Description[x-test]": "xxA plugin to select allxx",
        "EnabledByDefault": true,
        "Icon": "quickopen",
        "Id": "skg_selectall",
        "License": "GPL",
        "Name": "Select all plugin",
        "Name[bs]": "Dodatak izaberi sve",
        "Name[ca@valencia]": "Connector de seleccionar-ho tot",
        "Name[ca]": "Connector de seleccionar-ho tot",
        "Name[cs]": "Vybrat všechny moduly",
        "Name[da]": "Markér alt-plugin",
        "Name[de]": "Gesamtauswahl-Modul",
        "Name[el]": "Select all plugin",
        "Name[en_GB]": "Select all plugin",
        "Name[eo]": "Elekti ĉiujn kromaĵojn",
        "Name[es]": "Seleccione un complemento",
        "Name[et]": "Kõige valimise plugin",
        "Name[fi]": "Valitse kaikki -liitännäinen",
        "Name[fr]": "Moteur externe pour tout sélectionner",
        "Name[gl]": "Complemento de escollelo todo",
        "Name[hu]": "Minden kijelölése bővítmény",
        "Name[it]": "Seleziona tutte le estensioni",
        "Name[ka]": "ყველაფრის მონიშვნის მოდული",
        "Name[lt]": "Pažymėti viską papildinys",
        "Name[nb]": "Velg alt-modul",
        "Name[nds]": "\"Allens utsöken\"-Moduul",
        "Name[nl]": "Plugins voor alles selecteren",
        "Name[pl]": "Wtyczka \"zaznacz wszystko\"",
        "Name[pt]": "'Plugin' para seleccionar tudo",
        "Name[pt_BR]": "Plugin de seleção total",
        "Name[ru]": "Модуль «Выбрать всё»",
        "Name[sk]": "Plugin Vybrať všetko",
        "Name[sl]": "Vtičnik izbiranja vsega",
        "Name[sv]": "Insticksprogram för markera alla",
        "Name[tr]": "Tümünü seç Eklentisi",
        "Name[uk]": "Додаток позначення повністю",
        "Name[x-test]": "xxSelect all pluginxx",
        "Name[zh_CN]": "全选插件",
        "Name[zh_TW]": "全部選取外掛程式",
        "ServiceTypes": [
            "SKG GUI/Plugin"
        ],
        "Version": "1.0",
        "Website": "https://skrooge.org/"
    },
    "X-Krunner-ID": "Selectall plugin"
}
