{
    "KPlugin": {
        "Authors": [
            {
                "Email": "stephane@mankowski.fr",
                "Name": "Stephane MANKOWSKI",
                "Name[ca@valencia]": "Stephane MANKOWSKI",
                "Name[ca]": "Stephane MANKOWSKI",
                "Name[en_GB]": "Stephane MANKOWSKI",
                "Name[eo]": "Stephane MANKOWSKI",
                "Name[es]": "Stephane MANKOWSKI",
                "Name[fi]": "Stephane MANKOWSKI",
                "Name[fr]": "Stephane MANKOWSKI",
                "Name[gl]": "Stephane MANKOWSKI",
                "Name[ia]": "Stephane MANKOWSKI",
                "Name[it]": "Stephane MANKOWSKI",
                "Name[ka]": "Stephane MANKOWSKI",
                "Name[nl]": "Stephane MANKOWSKI",
                "Name[pl]": "Stephane MANKOWSKI",
                "Name[pt]": "Stephane MANKOWSKI",
                "Name[ru]": "Stephane MANKOWSKI",
                "Name[sk]": "Stephane MANKOWSKI",
                "Name[sl]": "Stephane MANKOWSKI",
                "Name[sv]": "Stephane MANKOWSKI",
                "Name[tr]": "Stephane MANKOWSKI",
                "Name[uk]": "Stephane MANKOWSKI",
                "Name[x-test]": "xxStephane MANKOWSKIxx"
            }
        ],
        "Category": "Plugins",
        "Description": "A Skrooge plugin to import XHB files",
        "Description[ca@valencia]": "Un connector de Skrooge per a importar fitxers XHB",
        "Description[ca]": "Un connector de l'Skrooge per a importar fitxers XHB",
        "Description[cs]": "Modul Skrooge pro import souborů XHB",
        "Description[en_GB]": "A Skrooge plugin to import XHB files",
        "Description[eo]": "Skrooge kromaĵo por importi XHB-dosierojn",
        "Description[es]": "Complemento de Skrooge para importar archivos XHB",
        "Description[fi]": "Skroogen XHB-tiedostojen tuontiliitännäinen",
        "Description[fr]": "Un module externe de Skrooge pour l'importation de fichiers « xhb »",
        "Description[gl]": "Un complemento de Skrooge para importar ficheiros XHB.",
        "Description[it]": "Un'estensione di Skrooge per importare i file XHB",
        "Description[ka]": "Skrooge -ის დამატება XHB -ის შემოსატანად",
        "Description[nl]": "Een Skrooge-plugin voor het importeren van XHB-bestanden",
        "Description[pl]": "Wtyczka Skrooge do importu plików XHB",
        "Description[pt]": "Um 'plugin' do Skrooge para importar ficheiros XHB",
        "Description[ru]": "Модуль импорта файлов XHB",
        "Description[sl]": "Vtičnik Skrooge za uvažanje datotek XHB",
        "Description[sv]": "Ett insticksprogram till Skrooge för att importera XHB-filer",
        "Description[tr]": "XHB dosyaları içe aktarmak için Varyemez eklentisi",
        "Description[uk]": "Додаток до Skrooge для імпортування даних з файлів XHB",
        "Description[x-test]": "xxA Skrooge plugin to import XHB filesxx",
        "EnabledByDefault": true,
        "Icon": "skrooge",
        "Id": "skrooge_import_xhb",
        "License": "GPL",
        "Name": "Skrooge import XHB plugin",
        "Name[bs]": "Skrooge dodatak za XHB uvoz",
        "Name[ca@valencia]": "Connector d'importació de XHB de Skrooge",
        "Name[ca]": "Connector d'importació de XHB de l'Skrooge",
        "Name[cs]": "Modul Skrooge pro import XHB",
        "Name[da]": "Plugin til import af XHB til Skrooge",
        "Name[de]": "Skrooge-XHB-Importmodul",
        "Name[el]": "Skrooge import XHB plugin",
        "Name[en_GB]": "Skrooge import XHB plugin",
        "Name[eo]": "Skrooge import XHB kromaĵo",
        "Name[es]": "Complemento de importación XHB en Skrooge",
        "Name[et]": "Skrooge XHB impordi plugin",
        "Name[fi]": "Skroogen XHB-tuontiliitännäinen",
        "Name[fr]": "Moteur externe de Skrooge pour l'importation « xhb »",
        "Name[gl]": "Complemento de importación de XHB a Skrooge",
        "Name[hu]": "Skrooge XHB importáló bővítmény",
        "Name[it]": "Estensione di Skrooge per l'importazione XHB",
        "Name[ka]": "Skrooge -ის დამატება XHB -ის შემოსატანად",
        "Name[lt]": "Skrooge XHB importavimo papildinys",
        "Name[nb]": "Skrooge-modul for XHB-import",
        "Name[nl]": "Plugin van Skrooge voor importeren van XHB",
        "Name[pl]": "Wtyczka importu XHB dla Skrooge",
        "Name[pt]": "'Plugin' de importação de XHB do Skrooge",
        "Name[pt_BR]": "Plugin de importação de XHB para o Skrooge",
        "Name[ru]": "Модуль импорта файлов XHB",
        "Name[sk]": "Skrooge plugin XHB import",
        "Name[sl]": "Vtičnik Skrooge uvoza XHB",
        "Name[sv]": "Skrooge XHB-importinsticksprogram",
        "Name[tr]": "Varyemez XHB İçe Aktarma Eklentisi",
        "Name[uk]": "Додаток імпортування XHB до Skrooge",
        "Name[x-test]": "xxSkrooge import XHB pluginxx",
        "Name[zh_TW]": "Skrooge 匯入 XHB 外掛程式",
        "Version": "1.0",
        "Website": "https://skrooge.org/"
    },
    "X-Krunner-ID": "Skrooge import XHB plugin"
}
