{
    "KPlugin": {
        "Authors": [
            {
                "Email": "stephane@mankowski.fr",
                "Name": "Stephane MANKOWSKI,miraks",
                "Name[ca@valencia]": "Stephane MANKOWSKI,miraks",
                "Name[ca]": "Stephane MANKOWSKI,miraks",
                "Name[en_GB]": "Stephane MANKOWSKI,miraks",
                "Name[eo]": "Stephane MANKOWSKI,miraks",
                "Name[es]": "Stephane MANKOWSKI,miraks",
                "Name[fi]": "Stephane MANKOWSKI,miraks",
                "Name[fr]": "Stephane MANKOWSKI, miraks",
                "Name[gl]": "Stephane MANKOWSKI, miraks",
                "Name[ia]": "Stephane MANKOWSKI,miraks",
                "Name[it]": "Stephane MANKOWSKI,miraks",
                "Name[ka]": "Stephane MANKOWSKI,miraks",
                "Name[nl]": "Stephane MANKOWSKI,miraks",
                "Name[pl]": "Stephane MANKOWSKI,miraks",
                "Name[pt]": "Stephane MANKOWSKI,miraks",
                "Name[ru]": "Stephane MANKOWSKI,miraks",
                "Name[sl]": "Stephane MANKOWSKI,miraks",
                "Name[sv]": "Stephane MANKOWSKI,miraks",
                "Name[tr]": "Stephane MANKOWSKI,miraks",
                "Name[uk]": "Stephane MANKOWSKI,miraks",
                "Name[x-test]": "xxStephane MANKOWSKI,miraksxx"
            }
        ],
        "Category": "Plugins",
        "Description": "A skrooge plugin to search and treat transactions",
        "Description[ca@valencia]": "Un connector de Skrooge per a buscar i tractar operacions",
        "Description[ca]": "Un connector de l'Skrooge per a cercar i tractar operacions",
        "Description[en_GB]": "A skrooge plugin to search and treat transactions",
        "Description[eo]": "Skrooge-kromaĵo por serĉi kaj trakti transakciojn",
        "Description[es]": "Complemento de Skrooge para la búsqueda y tratamiento de transacciones",
        "Description[fr]": "Un module externe pour la recherche et le traitement des opérations",
        "Description[gl]": "Un complemento de Skrooge para buscar e tratar transaccións.",
        "Description[it]": "Un'estensione di Skrooge per cercare e trattare le transazioni",
        "Description[ka]": "Skrooge-ის დამატება ტრანზაქციების საძებნად და ჩასასწორებლად",
        "Description[nl]": "Een plugin voor het zoeken en behandelen van transacties voor Skrooge",
        "Description[sl]": "Vtičnik Skrooge za iskanje in upravljanje transakcij",
        "Description[sv]": "Ett insticksprogram till skrooge för söka och behandla transaktioner",
        "Description[tr]": "İşlemleri aramak ve ele almak için bir Varyemez eklentisi",
        "Description[uk]": "Додаток до skrooge для виконання дій зі пошуку і обробки",
        "Description[x-test]": "xxA skrooge plugin to search and treat transactionsxx",
        "EnabledByDefault": true,
        "Icon": "skrooge",
        "Id": "skrooge_search",
        "License": "GPL",
        "Name": "Skrooge search plugin",
        "Name[bs]": "Skrooge dodatak za pretragu",
        "Name[ca@valencia]": "Connector de busca de Skrooge",
        "Name[ca]": "Connector de cerca de l'Skrooge",
        "Name[cs]": "Vyhledávací modul Skrooge",
        "Name[da]": "Søge-plugin til Skrooge",
        "Name[de]": "Skrooge-Suchmodul",
        "Name[el]": "Skrooge search plugin",
        "Name[en_GB]": "Skrooge search plugin",
        "Name[eo]": "Skrooge serĉkromaĵo",
        "Name[es]": "Complemento de búsqueda de Skrooge",
        "Name[et]": "Skrooge otsinguplugin",
        "Name[fi]": "Skroogen hakuliitännäinen",
        "Name[fr]": "Moteur externe Skrooge de recherche",
        "Name[gl]": "Complemento de busca de Skrooge",
        "Name[hu]": "Skrooge keresés bővítmény",
        "Name[it]": "Estensione di ricerca di Skrooge",
        "Name[ka]": "Skrooge ძებნის დამატება",
        "Name[lt]": "Skrooge paieškos papildinys",
        "Name[nb]": "Skrooge søkemodul",
        "Name[nds]": "Söökmoduul för Skrooge",
        "Name[nl]": "Een zoek-plugin voor Skrooge",
        "Name[pl]": "Wtyczka wyszukiwania dla Skrooge",
        "Name[pt]": "'Plugin' de pesquisa do Skrooge",
        "Name[pt_BR]": "Plugin de pesquisa do Skrooge",
        "Name[ru]": "Модуль поиска и обработки",
        "Name[sk]": "Plugin hľadania Skrooge",
        "Name[sl]": "Vtičnik Skrooge iskanja",
        "Name[sv]": "Skrooge sökinsticksprogram",
        "Name[tr]": "Varyemez Arama Eklentisi",
        "Name[uk]": "Додаток пошуку Skrooge",
        "Name[x-test]": "xxSkrooge search pluginxx",
        "Name[zh_TW]": "Skrooge 搜尋外掛程式",
        "ServiceTypes": [
            "SKG GUI/Plugin"
        ],
        "Version": "1.0",
        "Website": "https://skrooge.org/"
    },
    "X-Krunner-ID": "Skrooge search plugin"
}
