{
    "KPlugin": {
        "Authors": [
            {
                "Email": "stephane@mankowski.fr",
                "Name": "Stephane MANKOWSKI",
                "Name[ca@valencia]": "Stephane MANKOWSKI",
                "Name[ca]": "Stephane MANKOWSKI",
                "Name[en_GB]": "Stephane MANKOWSKI",
                "Name[eo]": "Stephane MANKOWSKI",
                "Name[es]": "Stephane MANKOWSKI",
                "Name[fi]": "Stephane MANKOWSKI",
                "Name[fr]": "Stephane MANKOWSKI",
                "Name[gl]": "Stephane MANKOWSKI",
                "Name[ia]": "Stephane MANKOWSKI",
                "Name[it]": "Stephane MANKOWSKI",
                "Name[ka]": "Stephane MANKOWSKI",
                "Name[nl]": "Stephane MANKOWSKI",
                "Name[pl]": "Stephane MANKOWSKI",
                "Name[pt]": "Stephane MANKOWSKI",
                "Name[ru]": "Stephane MANKOWSKI",
                "Name[sk]": "Stephane MANKOWSKI",
                "Name[sl]": "Stephane MANKOWSKI",
                "Name[sv]": "Stephane MANKOWSKI",
                "Name[tr]": "Stephane MANKOWSKI",
                "Name[uk]": "Stephane MANKOWSKI",
                "Name[x-test]": "xxStephane MANKOWSKIxx"
            }
        ],
        "Category": "Plugins",
        "Description": "A Skrooge plugin to import AFB120 files",
        "Description[ca@valencia]": "Un connector de Skrooge per a importar fitxers AFB120",
        "Description[ca]": "Un connector de l'Skrooge per a importar fitxers AFB120",
        "Description[cs]": "Modul Skrooge pro import souborů AFB120",
        "Description[en_GB]": "A Skrooge plugin to import AFB120 files",
        "Description[eo]": "Skrooge kromaĵo por importi AFB120-dosierojn",
        "Description[es]": "Complemento de Skrooge para importar archivos AFB120",
        "Description[fi]": "Skroogen AFB120-tiedostojen tuontiliitännäinen",
        "Description[fr]": "Un module externe de Skrooge pour l'importation de fichiers « AFB120 »",
        "Description[gl]": "Un complemento de Skrooge para importar ficheiros AFB120.",
        "Description[it]": "Un'estensione di Skrooge per importare i file AFB120",
        "Description[ka]": "Skrooge-ის დამატება AFB120-ის ფაილების შემოატანად",
        "Description[nl]": "Een Skrooge-plugin voor het importeren van AFB120-bestanden",
        "Description[pl]": "Wtyczka Skrooge do importu plików AFB120",
        "Description[pt]": "Um 'plugin' do Skrooge para importar ficheiros AFB120",
        "Description[ru]": "Модуль импорта файлов AFB120",
        "Description[sl]": "Vtičnik Skrooge za uvoz datotek AFB120",
        "Description[sv]": "Ett insticksprogram till Skrooge för att importera AFB120-filer",
        "Description[tr]": "AFB120 dosyaları içe aktarmak için bir Varyemez eklentisi",
        "Description[uk]": "Додаток до Skrooge для імпортування даних з файлів AFB120",
        "Description[x-test]": "xxA Skrooge plugin to import AFB120 filesxx",
        "EnabledByDefault": true,
        "Icon": "skrooge",
        "Id": "skrooge_import_afb120",
        "License": "GPL",
        "Name": "Skrooge import AFB120 plugin",
        "Name[bs]": "Skrooge dodatak za AFB120 uvoz",
        "Name[ca@valencia]": "Connector d'importació d'AFB120 de Skrooge",
        "Name[ca]": "Connector d'importació d'AFB120 de l'Skrooge",
        "Name[cs]": "Modul Skrooge pro import AFB120",
        "Name[da]": "Plugin til import af AFB120 til Skrooge",
        "Name[de]": "Skrooge-AFB120-Importmodul",
        "Name[el]": "Skrooge import AFB120 plugin",
        "Name[en_GB]": "Skrooge import AFB120 plugin",
        "Name[eo]": "Skrooge import AFB120-kromaĵo",
        "Name[es]": "Complemento de importación AFB120 en Skrooge",
        "Name[et]": "Skrooge AFB120 impordi plugin",
        "Name[fi]": "Skroogen AFB120-tuontiliitännäinen",
        "Name[fr]": "Moteur externe de Skrooge pour l'importation « AFB120 »",
        "Name[gl]": "Complemento de importación de AFB120 a Skrooge",
        "Name[hu]": "Skrooge AFB120 importáló bővítmény",
        "Name[it]": "Estensione di Skrooge per l'importazione AFB120",
        "Name[ka]": "Skrooge -ის დამატება AFB120 -ის შემოსატანად",
        "Name[lt]": "Skrooge AFB120 importavimo papildinys",
        "Name[nl]": "Plugin van Skrooge voor AFB120-importeren",
        "Name[pl]": "Wtyczka importu AFB120 dla Skrooge",
        "Name[pt]": "'Plugin' de importação em AFB120 do Skrooge",
        "Name[pt_BR]": "Plugin de importação de AFB120 para o Skrooge",
        "Name[ru]": "Модуль импорта AFB120",
        "Name[sk]": "Skrooge plugin AFB120 import",
        "Name[sl]": "Vtičnik uvoza  Skrooge AFB120",
        "Name[sv]": "Skrooge AFB120-importinsticksprogram",
        "Name[tr]": "Varyemez AFB120 İçe Aktarma Eklentisi",
        "Name[uk]": "Додаток імпортування AFB120 до Skrooge",
        "Name[x-test]": "xxSkrooge import AFB120 pluginxx",
        "Name[zh_TW]": "Skrooge 匯入 AFB120 外掛程式",
        "Version": "1.0",
        "Website": "https://skrooge.org/"
    },
    "X-Krunner-ID": "Skrooge import AFB120 plugin"
}
